[
    {
        "tradeId": 1,
        "messages": [
            {
                "body": "Hi, how are you? - Mukesh's trade",
                "avatar": "",
                "owner": true
            },
            {
                "body": "Lorem ipsum dolor sit amet, consectetur adipisicing elit, sed do eiusmod tempor incididunt",
                "avatar": "",
                "owner": false
            },
            {
                "body": "ut labore et dolore magna aliqua. Ut enim ad minim veniam, quis nostrud exercitation ullamco laboris nisi ut aliquip ex ea commodo consequat. Duis aute irure dolor in reprehenderit in voluptate velit esse cillum dolore eu fugiat nulla pariatur. Excepteur sint occaecat cupidatat non proident, sunt in culpa qui officia deserunt mollit anim id est laborum.",
                "avatar": "",
                "owner": false
            }
        ]
    },
    {
        "tradeId": 2,
        "messages": [
            {
                "body": "Hi, how are you? - Alice's trade",
                "avatar": "",
                "owner": true
            },
            {
                "body": "Lorem ipsum dolor sit amet, consectetur adipisicing elit, sed do eiusmod tempor incididunt",
                "avatar": "",
                "owner": true
            },
            {
                "body": "ut labore et dolore magna aliqua. Ut enim ad minim veniam, quis nostrud exercitation ullamco laboris nisi ut aliquip ex ea commodo consequat. Duis aute irure dolor in reprehenderit in voluptate velit esse cillum dolore eu fugiat nulla pariatur. Excepteur sint occaecat cupidatat non proident, sunt in culpa qui officia deserunt mollit anim id est laborum.",
                "avatar": "",
                "owner": false
            }
        ]
    }
]
